<?xml version="1.0" encoding="utf-8"?>
<!-- Generator: Adobe Illustrator 24.0.1, SVG Export Plug-In . SVG Version: 6.00 Build 0)  -->
<svg version="1.1" id="Layer_1" xmlns="http://www.w3.org/2000/svg" xmlns:xlink="http://www.w3.org/1999/xlink" x="0px" y="0px"
	 viewBox="0 0 1000 1000" style="enable-background:new 0 0 1000 1000;" xml:space="preserve">
<style type="text/css">
	.st0{fill:#FFFFFF;}
</style>
<title>YTS</title>
<path class="st0" d="M251.7,334.5c47.4,0,91.1-1.4,134.7,0.5c24.2,1.1,41.2,17,53.2,38c28.8,50.3,57.8,100.5,87.4,152l137-236.4
	c-45.5-8.4-52.8-4.9-74,32.2c-20.1,35.2-40.5,70.1-61.2,105.8c-26.6-28.1-29.8-54.3-6.9-84.3c14.6-19.1,24.8-41.5,36.8-62.5
	c16.1-28.1,39.9-42,72.7-41.3c37.6,0.7,75.2,0.2,116.9,0.2c-23.4,40.3-44.9,77.3-66.3,114.3C614.1,470,546.5,587.3,478.1,704.1
	c-19,32.5-48.5,53.1-86.2,56.1c-35.9,2.8-72.2,0.6-108.8,0.6c13.3-41,19.9-45.8,58.6-46.1c15.1-0.1,30.3-0.1,45.2-1.9
	c21.5-2.6,38.1-13.6,49.2-32.5c10.7-18.3,22.6-36,32-54.9c18.7-37.9,17.7-76-3.1-113c-18.2-32.3-39.2-63.2-54.9-96.6
	c-15.5-32.9-39-40.8-73.3-33c2.1,4.8,3.6,9.5,6,13.7c26.1,45.2,52.3,90.3,78.6,135.3c15,25.7,15.9,51.5,1,77.5
	c-3.8,6.6-7.8,13-11.6,19.5c-23.4,39.9-23.4,40-75.1,36c13.9-24.4,26.3-48.1,40.5-70.7c10.1-16.1,9.4-29.6-0.4-46
	C334.7,478.6,294.6,408.4,251.7,334.5z"/>
</svg>
